ALU16/Control_Unit/dump.vcd
$date
	Fri Nov 21 18:37:13 2025
$end
$version
	Icarus Verilog
$end
$timescale
	1ps
$end
$scope module CU_Extended_tb $end
$var wire 5 ! state_bits [4:0] $end
$var wire 5 " next_state_bits [4:0] $end
$var wire 1 # finish $end
$var wire 19 $ c [18:0] $end
$var parameter 32 % CLK_PERIOD $end
$var reg 1 & a_16 $end
$var reg 1 ' clk $end
$var reg 1 ( cmp_cnt_m4 $end
$var reg 4 ) cnt [3:0] $end
$var reg 1 * q0 $end
$var reg 1 + q_1 $end
$var reg 1 , rst_b $end
$var reg 4 - s [3:0] $end
$var reg 1 . start $end
$scope function dec5 $end
$var reg 1 / f0 $end
$var reg 1 0 f1 $end
$var reg 1 1 f2 $end
$var reg 1 2 f3 $end
$var reg 1 3 f4 $end
$upscope $end
$scope module dut $end
$var wire 1 & a_16 $end
$var wire 1 ' clk $end
$var wire 1 ( cmp_cnt_m4 $end
$var wire 4 4 cnt [3:0] $end
$var wire 1 # finish $end
$var wire 1 * q0 $end
$var wire 1 + q_1 $end
$var wire 1 , rst_b $end
$var wire 4 5 s [3:0] $end
$var wire 1 . start $end
$var wire 5 6 qout [4:0] $end
$var wire 19 7 c [18:0] $end
$scope module f0 $end
$var wire 1 ' clk $end
$var wire 1 8 d $end
$var wire 1 9 en $end
$var wire 1 , rst_b $end
$var reg 1 : q $end
$upscope $end
$scope module f1 $end
$var wire 1 ' clk $end
$var wire 1 ; d $end
$var wire 1 < en $end
$var wire 1 , rst_b $end
$var reg 1 = q $end
$upscope $end
$scope module f2 $end
$var wire 1 ' clk $end
$var wire 1 > d $end
$var wire 1 ? en $end
$var wire 1 , rst_b $end
$var reg 1 @ q $end
$upscope $end
$scope module f3 $end
$var wire 1 ' clk $end
$var wire 1 A d $end
$var wire 1 B en $end
$var wire 1 , rst_b $end
$var reg 1 C q $end
$upscope $end
$scope module f4 $end
$var wire 1 ' clk $end
$var wire 1 D d $end
$var wire 1 E en $end
$var wire 1 , rst_b $end
$var reg 1 F q $end
$upscope $end
$upscope $end
$scope task check_outputs $end
$upscope $end
$scope task do_reset $end
$upscope $end
$scope task drive_inputs $end
$upscope $end
$scope task step $end
$upscope $end
$scope task stepn $end
$upscope $end
$upscope $end
$enddefinitions $end
$comment Show the parameter values. $end
$dumpall
b1100100 %
$end
#0
$dumpvars
0F
1E
0D
0C
1B
0A
0@
1?
0>
0=
1<
0;
0:
19
08
b0 7
b0 6
b0 5
b0 4
x3
x2
x1
x0
x/
0.
b0 -
0,
0+
0*
b0 )
0(
0'
0&
b0 $
0#
b0 "
b0 !
$end
#50000
1'
#100000
0'
#150000
1,
1'
#200000
0'
#250000
b1 "
18
b1 $
b1 7
1.
1'
#300000
0'
#350000
1;
b1 6
b1 !
1:
b10 "
08
b10 $
b10 7
0.
1'
#400000
0'
#450000
1;
b11 "
18
b100 $
b100 7
0:
b10 6
b10 !
1=
1'
#500000
0'
#550000
0;
1>
b100 "
08
b1000 $
b1000 7
b11 6
b11 !
1:
1'
#600000
0'
#650000
b110 "
1;
b100000 $
b100000 7
0:
0=
b100 6
b100 !
1@
1'
#700000
0'
#750000
0>
b0 "
0;
1#
b0 $
b0 7
b110 6
b110 !
1=
1'
#800000
0'
#850000
0#
0=
b0 6
b0 !
0@
0,
1'
#900000
0'
#950000
1'
#1000000
0'
#1050000
1,
1'
#1100000
0'
#1150000
b1 "
18
b1 $
b1 7
1.
b1 -
b1 5
1'
#1200000
0'
#1250000
1;
b1 6
b1 !
1:
b10 "
08
b10 $
b10 7
0.
1'
#1300000
0'
#1350000
1;
b11 "
18
b100 $
b100 7
0:
b10 6
b10 !
1=
1'
#1400000
0'
#1450000
0;
b101 "
1>
b11000 $
b11000 7
b11 6
b11 !
1:
1'
#1500000
0'
#1550000
1;
b110 "
08
b100000 $
b100000 7
0=
b101 6
b101 !
1@
1'
#1600000
0'
#1650000
0>
b0 "
0;
1#
b0 $
b0 7
1=
b110 6
b110 !
0:
1'
#1700000
0'
#1750000
0#
0=
b0 6
b0 !
0@
0,
1'
#1800000
0'
#1850000
1'
#1900000
0'
#1950000
1,
1'
#2000000
0'
#2050000
b1 "
18
b1 $
b1 7
1.
b10 -
b10 5
1'
#2100000
0'
#2150000
1;
b1 6
b1 !
1:
b10 "
08
b10 $
b10 7
0.
1'
#2200000
0'
#2250000
0;
1A
b1001 "
18
b0 $
b0 7
0:
b10 6
b10 !
1=
1'
#2300000
0'
#2350000
0A
1>
b111 "
1;
b1000000 $
b1000000 7
1C
0=
b1001 6
b1001 !
1:
1+
1*
1'
#2400000
0'
#2450000
1A
08
0>
b1000 "
0;
b10000000 $
b10000000 7
1=
1@
b111 6
b111 !
0C
1'
#2500000
0'
#2550000
1A
b1001 "
18
b0 $
b0 7
1C
0@
0=
b1000 6
b1000 !
0:
1'
#2600000
0'
#2650000
0A
b101 "
1>
b11000 $
b11000 7
b1001 6
b1001 !
1:
0+
1'
#2700000
0'
#2750000
0A
1>
18
0C
b101 6
b101 !
1@
b111 "
1;
b1000000 $
b1000000 7
0*
1'
#2800000
0'
#2850000
0>
0;
1A
b1000 "
08
b10000000 $
b10000000 7
b111 6
b111 !
1=
1'
#2900000
0'
#2950000
1A
b1001 "
18
b0 $
b0 7
1C
0@
0=
b1000 6
b1000 !
0:
1'
#3000000
0'
#3050000
0A
1>
b100 "
08
b1000 $
b1000 7
b1001 6
b1001 !
1:
1+
1'
#3100000
0'
#3150000
0A
1>
0C
1@
b100 6
b100 !
0:
1;
b111 "
18
b1000000 $
b1000000 7
0+
1'
#3200000
0'
#3250000
b110 "
08
b100000 $
b100000 7
1:
b111 6
b111 !
1=
b1111 )
b1111 4
1'
#3300000
0'
#3350000
b110 6
b110 !
0:
0>
1A
b1010 "
1;
b100000000 $
b100000000 7
b0 )
b0 4
1'
#3400000
0'
#3450000
0A
b0 "
0;
1#
b0 $
b0 7
0@
b1010 6
b1010 !
1C
1'
#3500000
0'
#3550000
0A
b0 "
08
0#
0C
b0 6
b0 !
0=
1'
#3600000
0'
#3650000
0,
1'
#3700000
0'
#3750000
1'
#3800000
0'
#3850000
1,
1'
#3900000
0'
#3950000
b1 "
18
b1 $
b1 7
1.
b11 -
b11 5
1'
#4000000
0'
#4050000
1;
b1 6
b1 !
1:
b10 "
08
b10 $
b10 7
0.
1'
#4100000
0'
#4150000
1;
1A
b1011 "
18
b1000000000 $
b1000000000 7
0:
b10 6
b10 !
1=
1'
#4200000
0'
#4250000
0;
0A
08
b100 "
1>
b1000 $
b1000 7
1C
b1011 6
b1011 !
1:
1&
1'
#4300000
0'
#4350000
1A
b1100 "
1>
b10000000000 $
b10000000000 7
0:
0=
1@
b100 6
b100 !
0C
1'
#4400000
0'
#4450000
b1101 "
18
b1000000000 $
b1000000000 7
b1100 6
b1100 !
1C
b101 )
b101 4
0&
1'
#4500000
0'
#4550000
0>
b1000 "
08
b10000000 $
b10000000 7
b1101 6
b1101 !
1:
b0 )
b0 4
1*
1'
#4600000
0'
#4650000
1>
0A
b101 "
18
b11000 $
b11000 7
0@
b1000 6
b1000 !
0:
0*
1'
#4700000
0'
#4750000
1A
1>
08
b10000000000 $
b10000000000 7
b1100 "
0;
1:
1@
b101 6
b101 !
0C
1'
#4800000
0'
#4850000
b1110 "
1;
b1000 $
b1000 7
1C
b1100 6
b1100 !
0:
b1111 )
b1111 4
1&
1'
#4900000
0'
#4950000
0>
b1110 6
b1110 !
1=
1;
b1010 "
08
b100000000 $
b100000000 7
b0 )
b0 4
0&
1'
#5000000
0'
#5050000
1#
0;
b0 "
0A
b0 $
b0 7
b1010 6
b1010 !
0@
1'
#5100000
0'
#5150000
0#
0=
b0 6
b0 !
0C
1'
#5200000
0'
#5250000
0,
1'
#5300000
0'
#5350000
1'
#5400000
0'
#5450000
1,
1'
#5500000
0'
#5550000
b1 "
18
b1 $
b1 7
1.
b100 -
b100 5
1'
#5600000
0'
#5650000
1;
b1 6
b1 !
1:
b10 "
08
b10 $
b10 7
0.
1'
#5700000
0'
#5750000
1;
1A
b1011 "
18
b1000000000 $
b1000000000 7
1=
b10 6
b10 !
0:
1'
#5800000
0'
#5850000
0;
0A
08
b100 "
1>
b1000 $
b1000 7
1:
b1011 6
b1011 !
1C
1&
1'
#5900000
0'
#5950000
1A
b1100 "
08
b10000000000 $
b10000000000 7
0C
1@
0=
b100 6
b100 !
0:
1'
#6000000
0'
#6050000
1>
1A
b1101 "
18
b1000000000 $
b1000000000 7
b1100 6
b1100 !
1C
b101 )
b101 4
0&
1'
#6100000
0'
#6150000
0>
b1000 "
08
b10000000 $
b10000000 7
b1101 6
b1101 !
1:
b0 )
b0 4
1*
1'
#6200000
0'
#6250000
1>
18
b101 "
0A
b11000 $
b11000 7
0:
b1000 6
b1000 !
0@
0*
1'
#6300000
0'
#6350000
08
1A
b10000000000 $
b10000000000 7
b1100 "
0;
0C
1@
b101 6
b101 !
1:
1'
#6400000
0'
#6450000
1;
b1000 $
b1000 7
1>
b1110 "
1A
0:
b1100 6
b1100 !
1C
b1111 )
b1111 4
1&
1'
#6500000
0'
#6550000
1>
0A
b1110 6
b1110 !
1=
1;
b110 "
08
b100000 $
b100000 7
b0 )
b0 4
0&
1'
#6600000
0'
#6650000
1#
0>
b0 "
0;
b0 $
b0 7
b110 6
b110 !
0C
1'
#6700000
0'
#6750000
0#
0@
b0 6
b0 !
0=
1'
#6800000
0'
#6850000
0,
1'
#6900000
0'
#6950000
1'
#7000000
0'
#7050000
1,
1'
#7100000
0'
#7150000
b1 "
18
b1 $
b1 7
1.
b101 -
b101 5
1'
#7200000
0'
#7250000
1;
b1 6
b1 !
1:
b10 "
08
b10 $
b10 7
0.
1'
#7300000
0'
#7350000
1>
1;
1A
b1111 "
18
b100000000000 $
b100000000000 7
0:
b10 6
b10 !
1=
1'
#7400000
0'
#7450000
0>
0;
b1000 "
08
b10000000 $
b10000000 7
1C
1@
b1111 6
b1111 !
1:
1'
#7500000
0'
#7550000
1>
1;
18
b1111 "
1A
b100000000000 $
b100000000000 7
0:
0=
b1000 6
b1000 !
0@
1'
#7600000
0'
#7650000
0>
0;
b1000 "
08
b10000000 $
b10000000 7
1@
1=
b1111 6
b1111 !
1:
b101 )
b101 4
1'
#7700000
0'
#7750000
1;
b1010 "
1A
b100000000 $
b100000000 7
0:
0=
b1000 6
b1000 !
0@
b0 )
b0 4
1(
1'
#7800000
0'
#7850000
0;
0A
1#
b1010 6
b1010 !
1=
0>
b0 "
08
b0 $
b0 7
0(
1'
#7900000
0'
#7950000
0#
0=
b0 6
b0 !
0C
1'
#8000000
0'
#8050000
0,
1'
#8100000
0'
#8150000
1'
#8200000
0'
#8250000
1,
1'
#8300000
0'
#8350000
b1 "
18
b1 $
b1 7
1.
b110 -
b110 5
1'
#8400000
0'
#8450000
1;
b1 6
b1 !
1:
b10 "
08
b10 $
b10 7
0.
1'
#8500000
0'
#8550000
0;
b10000 "
1D
b1000000000000 $
b1000000000000 7
1=
b10 6
b10 !
0:
1'
#8600000
0'
#8650000
0D
b1000 "
1A
b10000000 $
b10000000 7
0=
b10000 6
b10000 !
1F
1'
#8700000
0'
#8750000
1D
b10000 "
0A
b1000000000000 $
b1000000000000 7
0F
b1000 6
b1000 !
1C
1'
#8800000
0'
#8850000
0D
b1000 "
1A
b10000000 $
b10000000 7
0C
b10000 6
b10000 !
1F
b101 )
b101 4
1'
#8900000
0'
#8950000
1;
b1010 "
1A
b100000000 $
b100000000 7
0F
b1000 6
b1000 !
1C
b0 )
b0 4
1(
1'
#9000000
0'
#9050000
1#
b1010 6
b1010 !
1=
0A
0;
b0 "
0D
b0 $
b0 7
0(
1'
#9100000
0'
#9150000
b0 "
0D
0#
b0 $
b0 7
0C
b0 6
b0 !
0=
1'
#9200000
0'
#9250000
0,
1'
#9300000
0'
#9350000
1'
#9400000
0'
#9450000
1,
1'
#9500000
0'
#9550000
b1 "
18
b1 $
b1 7
1.
b111 -
b111 5
1'
#9600000
0'
#9650000
1;
b1 6
b1 !
1:
b10 "
08
b10 $
b10 7
0.
1'
#9700000
0'
#9750000
0;
18
b10001 "
1D
b10000000000000 $
b10000000000000 7
0:
b10 6
b10 !
1=
1'
#9800000
0'
#9850000
0;
08
0D
b1000 "
1A
b10000000 $
b10000000 7
1F
0=
b10001 6
b10001 !
1:
1'
#9900000
0'
#9950000
18
1D
b10001 "
0A
b10000000000000 $
b10000000000000 7
0:
1C
b1000 6
b1000 !
0F
1'
#10000000
0'
#10050000
08
0D
1A
0>
b10000000 $
b10000000 7
b1000 "
0;
1F
0C
b10001 6
b10001 !
1:
b101 )
b101 4
1'
#10100000
0'
#10150000
1;
b1010 "
1A
b100000000 $
b100000000 7
0:
1C
b1000 6
b1000 !
0F
b0 )
b0 4
1(
1'
#10200000
0'
#10250000
1#
b1010 6
b1010 !
1=
0A
0;
08
b0 "
0D
b0 $
b0 7
0(
1'
#10300000
0'
#10350000
0#
0=
b0 6
b0 !
0C
1'
#10400000
0'
#10450000
0,
1'
#10500000
0'
#10550000
1'
#10600000
0'
#10650000
1,
1'
#10700000
0'
#10750000
b1 "
18
b1 $
b1 7
1.
b1000 -
b1000 5
1'
#10800000
0'
#10850000
1;
b1 6
b1 !
1:
b10 "
08
b10 $
b10 7
0.
1'
#10900000
0'
#10950000
b10010 "
1D
b100000000000000 $
b100000000000000 7
1=
b10 6
b10 !
0:
1'
#11000000
0'
#11050000
0;
0D
b1000 "
1A
b10000000 $
b10000000 7
b10010 6
b10010 !
1F
1'
#11100000
0'
#11150000
1;
1D
b10010 "
0A
b100000000000000 $
b100000000000000 7
0F
1C
b1000 6
b1000 !
0=
1'
#11200000
0'
#11250000
0;
0D
0#
b1000 "
1A
b10000000 $
b10000000 7
1=
0C
b10010 6
b10010 !
1F
b101 )
b101 4
1'
#11300000
0'
#11350000
1;
b1010 "
1A
b100000000 $
b100000000 7
0F
1C
b1000 6
b1000 !
0=
b0 )
b0 4
1(
1'
#11400000
0'
#11450000
0;
1#
b1010 6
b1010 !
1=
0A
b0 "
0D
b0 $
b0 7
0(
1'
#11500000
0'
#11550000
0;
b0 $
b0 7
b0 "
0D
0#
0C
b0 6
b0 !
0=
1'
#11600000
0'
#11650000
0,
1'
#11700000
0'
#11750000
1'
#11800000
0'
#11850000
1,
1'
#11900000
0'
#11950000
b1 "
18
b1 $
b1 7
1.
b1001 -
b1001 5
1'
#12000000
0'
#12050000
1;
b1 6
b1 !
1:
b10 "
08
b10 $
b10 7
0.
1'
#12100000
0'
#12150000
18
b10011 "
1D
b1000000000000000 $
b1000000000000000 7
0:
b10 6
b10 !
1=
1'
#12200000
0'
#12250000
08
1>
b110 "
0D
b100000 $
b100000 7
1F
b10011 6
b10011 !
1:
1'
#12300000
0'
#12350000
1#
0>
0;
b0 "
0A
b0 $
b0 7
0:
1@
b110 6
b110 !
0F
1'
#12400000
0'
#12450000
0#
0@
b0 6
b0 !
0=
1'
#12500000
0'
#12550000
0,
1'
#12600000
0'
#12650000
1'
#12700000
0'
#12750000
1,
1'
#12800000
0'
#12850000
b1 "
18
b1 $
b1 7
1.
b1010 -
b1010 5
1'
#12900000
0'
#12950000
1;
b1 6
b1 !
1:
b10 "
08
b10 $
b10 7
0.
1'
#13000000
0'
#13050000
1>
0;
b10100 "
1D
b10000000000000000 $
b10000000000000000 7
0:
b10 6
b10 !
1=
1'
#13100000
0'
#13150000
0D
b110 "
1;
b100000 $
b100000 7
1F
1@
b10100 6
b10100 !
0=
1'
#13200000
0'
#13250000
1#
0>
b0 "
0;
b0 $
b0 7
1=
b110 6
b110 !
0F
1'
#13300000
0'
#13350000
0#
0@
b0 6
b0 !
0=
1'
#13400000
0'
#13450000
0,
1'
#13500000
0'
#13550000
1'
#13600000
0'
#13650000
1,
1'
#13700000
0'
#13750000
b1 "
18
b1 $
b1 7
1.
b1011 -
b1011 5
1'
#13800000
0'
#13850000
1;
b1 6
b1 !
1:
b10 "
08
b10 $
b10 7
0.
1'
#13900000
0'
#13950000
1>
0;
18
b10101 "
1D
b100000000000000000 $
b100000000000000000 7
0:
b10 6
b10 !
1=
1'
#14000000
0'
#14050000
08
0D
b110 "
1;
b100000 $
b100000 7
1F
1@
0=
b10101 6
b10101 !
1:
1'
#14100000
0'
#14150000
1#
0>
b0 "
0;
b0 $
b0 7
0:
1=
b110 6
b110 !
0F
1'
#14200000
0'
#14250000
0#
0@
b0 6
b0 !
0=
1'
#14300000
0'
#14350000
0,
1'
#14400000
0'
#14450000
1'
#14500000
0'
#14550000
1,
1'
#14600000
0'
#14650000
b1 "
18
b1 $
b1 7
1.
b1100 -
b1100 5
1'
#14700000
0'
#14750000
1;
b1 6
b1 !
1:
b10 "
08
b10 $
b10 7
0.
1'
#14800000
0'
#14850000
1>
b10110 "
1D
b1000000000000000000 $
b1000000000000000000 7
0:
b10 6
b10 !
1=
1'
#14900000
0'
#14950000
0#
b110 "
0D
b100000 $
b100000 7
1F
b10110 6
b10110 !
1@
1'
#15000000
0'
#15050000
1#
0>
b0 "
0;
b0 $
b0 7
b110 6
b110 !
0F
1'
#15100000
0'
#15150000
0#
0@
b0 6
b0 !
0=
1'
#15200000
0'
#15250000
0,
1'
#15300000
0'
#15350000
1'
#15400000
0'
#15450000
1,
1'
#15500000
0'
#15550000
b1 "
18
b1 $
b1 7
1.
b1101 -
b1101 5
1'
#15600000
0'
#15650000
1;
b1 6
b1 !
1:
b10 "
08
b10 $
b10 7
0.
1'
#15700000
0'
#15750000
b11 "
18
b100 $
b100 7
0:
b10 6
b10 !
1=
1'
#15800000
0'
#15850000
1>
b101 "
0;
b11000 $
b11000 7
b11 6
b11 !
1:
1'
#15900000
0'
#15950000
0>
1#
b0 "
08
b0 $
b0 7
0=
b101 6
b101 !
1@
1'
#16000000
0'
#16050000
0#
0@
b0 6
b0 !
0:
1'
#16100000
0'
#16150000
0,
1'
#16200000
0'
#16250000
1'
#16300000
0'
#16350000
1,
1'
#16400000
0'
#16450000
b1 "
18
b1 $
b1 7
1.
b1110 -
b1110 5
1'
#16500000
0'
#16550000
1;
b1 6
b1 !
1:
b10 "
08
b10 $
b10 7
0.
1'
#16600000
0'
#16650000
18
b10011 "
1D
b1000000000000000 $
b1000000000000000 7
0:
b10 6
b10 !
1=
1'
#16700000
0'
#16750000
0;
08
b0 "
0D
1#
b0 $
b0 7
1F
b10011 6
b10011 !
1:
1'
#16800000
0'
#16850000
0#
0:
0=
b0 6
b0 !
0F
1'
