ALU16/Control_Unit/dump.vcd
$date
	Fri Nov 14 19:53:04 2025
$end
$version
	Icarus Verilog
$end
$timescale
	1ps
$end
$scope module CU_Extended_tb $end
$var wire 5 ! state_bits [4:0] $end
$var wire 5 " next_state_bits [4:0] $end
$var wire 1 # finish $end
$var wire 19 $ c [18:0] $end
$var parameter 32 % CLK_PERIOD $end
$var reg 1 & a_16 $end
$var reg 1 ' clk $end
$var reg 1 ( cmp_cnt_m4 $end
$var reg 4 ) cnt [3:0] $end
$var reg 1 * q0 $end
$var reg 1 + q_1 $end
$var reg 1 , rst_b $end
$var reg 4 - s [3:0] $end
$var reg 1 . start $end
$scope function dec5 $end
$var reg 1 / f0 $end
$var reg 1 0 f1 $end
$var reg 1 1 f2 $end
$var reg 1 2 f3 $end
$var reg 1 3 f4 $end
$upscope $end
$scope module dut $end
$var wire 1 & a_16 $end
$var wire 1 ' clk $end
$var wire 1 ( cmp_cnt_m4 $end
$var wire 4 4 cnt [3:0] $end
$var wire 1 # finish $end
$var wire 1 * q0 $end
$var wire 1 + q_1 $end
$var wire 1 , rst_b $end
$var wire 4 5 s [3:0] $end
$var wire 1 . start $end
$var wire 5 6 qout [4:0] $end
$var wire 19 7 c [18:0] $end
$scope module f0 $end
$var wire 1 ' clk $end
$var wire 1 8 d $end
$var wire 1 9 en $end
$var wire 1 , rst_b $end
$var reg 1 : q $end
$upscope $end
$scope module f1 $end
$var wire 1 ' clk $end
$var wire 1 ; d $end
$var wire 1 < en $end
$var wire 1 , rst_b $end
$var reg 1 = q $end
$upscope $end
$scope module f2 $end
$var wire 1 ' clk $end
$var wire 1 > d $end
$var wire 1 ? en $end
$var wire 1 , rst_b $end
$var reg 1 @ q $end
$upscope $end
$scope module f3 $end
$var wire 1 ' clk $end
$var wire 1 A d $end
$var wire 1 B en $end
$var wire 1 , rst_b $end
$var reg 1 C q $end
$upscope $end
$scope module f4 $end
$var wire 1 ' clk $end
$var wire 1 D d $end
$var wire 1 E en $end
$var wire 1 , rst_b $end
$var reg 1 F q $end
$upscope $end
$upscope $end
$scope task check_outputs $end
$upscope $end
$scope task do_reset $end
$upscope $end
$scope task drive_inputs $end
$upscope $end
$scope task step $end
$upscope $end
$scope task stepn $end
$upscope $end
$upscope $end
$enddefinitions $end
$comment Show the parameter values. $end
$dumpall
b1100100 %
$end
#0
$dumpvars
0F
1E
0D
0C
1B
0A
0@
1?
0>
0=
1<
0;
0:
19
08
b0 7
b0 6
b0 5
b0 4
x3
x2
x1
x0
x/
0.
b0 -
0,
0+
0*
b0 )
0(
0'
0&
b0 $
0#
b0 "
b0 !
$end
#50000
1'
#100000
0'
#150000
1,
1'
#200000
0'
#250000
b1 "
18
b1 $
b1 7
1.
1'
#300000
0'
#350000
1;
b1 6
b1 !
1:
b10 "
08
b10 $
b10 7
0.
1'
#400000
0'
#450000
1;
b11 "
18
b100 $
b100 7
0:
b10 6
b10 !
1=
1'
#500000
0'
#550000
0;
1>
b100 "
08
b1000 $
b1000 7
b11 6
b11 !
1:
1'
#600000
0'
#650000
b110 "
1;
b100000 $
b100000 7
0:
0=
b100 6
b100 !
1@
1'
#700000
0'
#750000
0>
b0 "
0;
1#
b0 $
b0 7
b110 6
b110 !
1=
1'
#800000
0'
#850000
0#
0=
b0 6
b0 !
0@
0,
1'
#900000
0'
#950000
1'
#1000000
0'
#1050000
1,
1'
#1100000
0'
#1150000
b1 "
18
b1 $
b1 7
1.
b1 -
b1 5
1'
#1200000
0'
#1250000
1;
b1 6
b1 !
1:
b10 "
08
b10 $
b10 7
0.
1'
#1300000
0'
#1350000
1;
b11 "
18
b100 $
b100 7
0:
b10 6
b10 !
1=
1'
#1400000
0'
#1450000
0;
b101 "
1>
b11000 $
b11000 7
b11 6
b11 !
1:
1'
#1500000
0'
#1550000
1;
b110 "
08
b100000 $
b100000 7
0=
b101 6
b101 !
1@
1'
#1600000
0'
#1650000
0>
b0 "
0;
1#
b0 $
b0 7
1=
b110 6
b110 !
0:
1'
#1700000
0'
#1750000
0#
0=
b0 6
b0 !
0@
0,
1'
#1800000
0'
#1850000
1'
#1900000
0'
#1950000
1,
1'
#2000000
0'
#2050000
b1 "
18
b1 $
b1 7
1.
b10 -
b10 5
1'
#2100000
0'
#2150000
1;
b1 6
b1 !
1:
b10 "
08
b10 $
b10 7
0.
1'
#2200000
0'
#2250000
0;
1A
b1001 "
18
b0 $
b0 7
0:
b10 6
b10 !
1=
1'
#2300000
0'
#2350000
0A
1>
b111 "
1;
b1000000 $
b1000000 7
1C
0=
b1001 6
b1001 !
1:
1+
1*
1'
#2400000
0'
#2450000
0;
1A
08
b1000 "
0>
b10000000 $
b10000000 7
1=
1@
b111 6
b111 !
0C
1'
#2500000
0'
#2550000
1A
b1001 "
18
b0 $
b0 7
1C
0@
0=
b1000 6
b1000 !
0:
1'
#2600000
0'
#2650000
1;
0A
b111 "
1>
b11000 $
b11000 7
b1001 6
b1001 !
1:
0+
1'
#2700000
0'
#2750000
0;
08
1A
b1000 "
0>
0C
1@
b111 6
b111 !
1=
b10000000 $
b10000000 7
0*
1'
#2800000
0'
#2850000
1A
b1001 "
18
b0 $
b0 7
0:
0=
0@
b1000 6
b1000 !
1C
1'
#2900000
0'
#2950000
0A
1>
b1000000 $
b1000000 7
b111 "
1;
b1001 6
b1001 !
1:
1'
#3000000
0'
#3050000
0;
1A
1=
1@
b111 6
b111 !
0C
0>
b1000 "
08
b10000000 $
b10000000 7
1+
1'
#3100000
0'
#3150000
1A
b1001 "
18
b0 $
b0 7
1C
0@
0=
b1000 6
b1000 !
0:
0+
1'
#3200000
0'
#3250000
0A
1>
b1000000 $
b1000000 7
b111 "
1;
b1001 6
b1001 !
1:
b1111 )
b1111 4
1'
#3300000
0'
#3350000
08
0A
b110 "
1>
b100000 $
b100000 7
0C
1@
b111 6
b111 !
1=
1'
#3400000
0'
#3450000
0>
1A
b1010 "
1;
b100000000 $
b100000000 7
b110 6
b110 !
0:
1'
#3500000
0'
#3550000
08
0;
b0 "
0A
1#
b0 $
b0 7
1C
b1010 6
b1010 !
0@
1'
#3600000
0'
#3650000
0#
0=
b0 6
b0 !
0C
1'
