Processor/ALU16/Control_Unit/dump2.vcd
$date
	Thu Nov 13 21:45:49 2025
$end
$version
	Icarus Verilog
$end
$timescale
	1ps
$end
$scope module CU_Extended_tb2 $end
$var wire 1 ! finish $end
$var wire 19 " c [18:0] $end
$var parameter 32 # CLK_PERIOD $end
$var reg 1 $ a_16 $end
$var reg 1 % clk $end
$var reg 1 & cmp_cnt_m4 $end
$var reg 4 ' cnt [3:0] $end
$var reg 1 ( q0 $end
$var reg 1 ) q_1 $end
$var reg 1 * rst_b $end
$var reg 4 + s [3:0] $end
$var reg 1 , start $end
$scope module dut $end
$var wire 1 $ a_16 $end
$var wire 1 % clk $end
$var wire 1 & cmp_cnt_m4 $end
$var wire 4 - cnt [3:0] $end
$var wire 1 ! finish $end
$var wire 1 ( q0 $end
$var wire 1 ) q_1 $end
$var wire 1 * rst_b $end
$var wire 4 . s [3:0] $end
$var wire 1 , start $end
$var wire 5 / qout [4:0] $end
$var wire 19 0 c [18:0] $end
$scope module f0 $end
$var wire 1 % clk $end
$var wire 1 1 d $end
$var wire 1 2 en $end
$var wire 1 * rst_b $end
$var reg 1 3 q $end
$upscope $end
$scope module f1 $end
$var wire 1 % clk $end
$var wire 1 4 d $end
$var wire 1 5 en $end
$var wire 1 * rst_b $end
$var reg 1 6 q $end
$upscope $end
$scope module f2 $end
$var wire 1 % clk $end
$var wire 1 7 d $end
$var wire 1 8 en $end
$var wire 1 * rst_b $end
$var reg 1 9 q $end
$upscope $end
$scope module f3 $end
$var wire 1 % clk $end
$var wire 1 : d $end
$var wire 1 ; en $end
$var wire 1 * rst_b $end
$var reg 1 < q $end
$upscope $end
$scope module f4 $end
$var wire 1 % clk $end
$var wire 1 = d $end
$var wire 1 > en $end
$var wire 1 * rst_b $end
$var reg 1 ? q $end
$upscope $end
$upscope $end
$scope task reset_n $end
$upscope $end
$scope task step $end
$upscope $end
$scope task stepn $end
$upscope $end
$upscope $end
$enddefinitions $end
$comment Show the parameter values. $end
$dumpall
b1100100 #
$end
#0
$dumpvars
0?
1>
0=
0<
1;
0:
09
18
07
06
15
04
03
12
01
b0 0
b0 /
b0 .
b0 -
0,
b0 +
0*
0)
0(
b0 '
0&
0%
0$
b0 "
0!
$end
#50000
1%
#100000
0%
#150000
1*
1%
#200000
0%
#250000
11
b1 "
b1 0
1,
1%
#300000
0%
#350000
14
b1 /
13
01
b10 "
b10 0
b1 '
b1 -
0,
1%
#400000
0%
#450000
14
11
b100 "
b100 0
03
b10 /
16
b10 '
b10 -
1%
#500000
0%
#550000
04
17
01
b1000 "
b1000 0
b11 /
13
b11 '
b11 -
1%
#600000
0%
#650000
14
b100000 "
b100000 0
03
06
b100 /
19
b100 '
b100 -
1%
#700000
0%
#750000
07
04
b110 /
16
01
b0 "
b0 0
b10 +
b10 .
1%
#800000
0%
#850000
06
b0 /
09
04
0:
b0 "
b0 0
1&
1%
#900000
0%
#950000
1%
#1000000
0%
#1050000
1%
#1100000
0%
#1150000
1$
b1111 '
b1111 -
1%
#1200000
0%
#1250000
1%
#1300000
0%
#1350000
0$
1%
#1400000
0%
#1450000
1%
#1500000
0%
#1550000
1)
b101 +
b101 .
1%
#1600000
0%
#1650000
0)
1(
1%
#1700000
0%
#1750000
1)
1%
#1800000
0%
#1850000
11
b1 "
b1 0
1,
b1110 +
b1110 .
1%
#1900000
0%
#1950000
14
b1 /
13
01
b10 "
b10 0
0,
1%
#2000000
0%
#2050000
11
1=
b1000000000000000 "
b1000000000000000 0
03
b10 /
16
1%
#2100000
0%
#2150000
04
01
0=
1!
b0 "
b0 0
1?
b10011 /
13
1%
#2200000
0%
#2250000
0!
03
06
b0 /
0?
1%
